{
    "author": "Bach",
    "year": 1720,
    "name": "Brandenburg Concerto No. 4 in G major, BWV 1049 (ca. 1720) (Arranged successively as BWV 1057)",
    "category": "misc",
    "files": {
        "bach_brandeburg_concert_1049_1_(nc)anonym.mid": { "movement": 1, "speed": "allegro" },
        "bach_brandeburg_concert_1049_2_(nc)anonym.mid": { "movement": 2, "speed": "andante" },
        "bach_brandeburg_concert_1049_3_(nc)anonym.mid": { "movement": 3, "speed": "allegro assai" }
    }
}
