{
    "author": "Mozart",
    "category": "fugues",
    "files": {
        "mozart_fugue_153_375f_(c)iscenko.mid": {"key": "E flat major", "year": 1783, "name": "Fugue in E flat major, KV 153, K(6) 375f (1783)"},
        "mozart_fugue_154_358k_(c)iscenko.mid": {"key": "G minor", "year": 1782, "name": "Fugue in g minor, KV 154, K(6) 358k (1782)"},
        "mozart_fugue_2-piano_375d_1_(c)iscenko.mid": {"key": "G major", "year": 1781, "name": "Fugue in G major, K Anh 45, K 375d (1781)"},
        "mozart_fugue_375g_(c)iscenko.mid": {"key": "G major", "year": 1777, "name": "Fugue in G major, KV Anh. 41, K(6) 375g (1777)"},
        "mozart_fugue_401_(c)garty.mid": {"key": "G minor", "year": 1782, "name": "Fugue in g minor from Neue Mozart Ausgabe, KV 401, K(6) 375e (1782)"}
    }
}
