{
    "author": "Mozart",
    "category": "variations",
    "files": {
        "mozart-oguri_vous_diraije_maman_(c)oguri.mid": {"name": "Ah! Vous dirai-je, Maman, variations"},
        "variation_uber_duport_in_d_573_(hisamori).mid": {"name": "Variation uber das Menuett con Duport in d minor, KV 573 (1789?)", "year": 1789}
    }
}
